HTTP/1.1 200 OK
Date: Sun, 03 Jan 2021 09:54:11 GMT
Content-Type: application/json;charset=utf-8
Access-Control-Allow-Origin: *
http.status: 204
x-road-id: PLAYGROUND-c9cd5ebc-7773-444f-9e05-95da51c71103
x-road-client: PLAYGROUND/COM/1234567-8/TestClient
x-road-service: PLAYGROUND/GOV/8765432-1/TestService/TR
x-road-request-id: e5245e6a-359b-4c1e-978d-89841b94d689
x-road-request-hash: 7578pVahMEx2aITCWQeibE5vatKmgqpZe/15SqEc9kGX1jK0hUPvub1Wl9AnAsnBc6dqZDu7o0Jhb9S6rzHIvA==
Content-Length: 2733

{"type":"fi.prh.opendata.tr","version":"1","totalResults":-1,"resultsFrom":0,"previousResultsUri":null,"nextResultsUri":"http://avoindata.prh.fi/opendata/tr/v1/?totalResults=false&maxResults=10&resultsFrom=10&companyRegistrationFrom=2019-02-28","exceptionNoticeUri":null,"results":[{"businessId":"3177937-9","name":"Valokaapeliasennus Pölkki Oy","registrationDate":"2021-01-01","companyForm":"OY","detailsUri":"http://avoindata.prh.fi/opendata/tr/v1/3177937-9","bisDetailsUri":"http://avoindata.prh.fi/opendata/bis/v1/3177937-9"},{"businessId":"3177032-3","name":"Remonttipalvelu Väyrynen Oy","registrationDate":"2021-01-01","companyForm":"OY","detailsUri":"http://avoindata.prh.fi/opendata/tr/v1/3177032-3","bisDetailsUri":"http://avoindata.prh.fi/opendata/bis/v1/3177032-3"},{"businessId":"3175246-7","name":"LVI Kotilainen Oy","registrationDate":"2021-01-01","companyForm":"OY","detailsUri":"http://avoindata.prh.fi/opendata/tr/v1/3175246-7","bisDetailsUri":"http://avoindata.prh.fi/opendata/bis/v1/3175246-7"},{"businessId":"3177451-9","name":"Korjaus ja Koneistus Kuusniemi Oy","registrationDate":"2021-01-01","companyForm":"OY","detailsUri":"http://avoindata.prh.fi/opendata/tr/v1/3177451-9","bisDetailsUri":"http://avoindata.prh.fi/opendata/bis/v1/3177451-9"},{"businessId":"3174974-3","name":"Taitoavain Oy","registrationDate":"2021-01-01","companyForm":"OY","detailsUri":"http://avoindata.prh.fi/opendata/tr/v1/3174974-3","bisDetailsUri":"http://avoindata.prh.fi/opendata/bis/v1/3174974-3"},{"businessId":"3153538-2","name":"Ylivieskan Kettukallionkatu 4 Oy","registrationDate":"2021-01-01","companyForm":"OY","detailsUri":"http://avoindata.prh.fi/opendata/tr/v1/3153538-2","bisDetailsUri":"http://avoindata.prh.fi/opendata/bis/v1/3153538-2"},{"businessId":"3153537-4","name":"Ylivieskan Teollisuuskiinteistöt Oy","registrationDate":"2021-01-01","companyForm":"OY","detailsUri":"http://avoindata.prh.fi/opendata/tr/v1/3153537-4","bisDetailsUri":"http://avoindata.prh.fi/opendata/bis/v1/3153537-4"},{"businessId":"3179105-2","name":"Tilaviilaamo Oy","registrationDate":"2021-01-01","companyForm":"OY","detailsUri":"http://avoindata.prh.fi/opendata/tr/v1/3179105-2","bisDetailsUri":"http://avoindata.prh.fi/opendata/bis/v1/3179105-2"},{"businessId":"3178259-4","name":"Pekkala Executive Oy","registrationDate":"2021-01-01","companyForm":"OY","detailsUri":"http://avoindata.prh.fi/opendata/tr/v1/3178259-4","bisDetailsUri":"http://avoindata.prh.fi/opendata/bis/v1/3178259-4"},{"businessId":"3165432-2","name":"Lääkäri Tytti Toukola Oy","registrationDate":"2021-01-01","companyForm":"OY","detailsUri":"http://avoindata.prh.fi/opendata/tr/v1/3165432-2","bisDetailsUri":"http://avoindata.prh.fi/opendata/bis/v1/3165432-2"}]}